{
  "Version": "2012-10-17",
  "Statement": [
    {
      "Effect" : "Allow",
      "Principal": {
        "AWS": "arn:aws:iam::630553469528:user/Administrator"
      },
      "Action": "sts:AssumeRole"
    }
  ]
}


